…
2. Notice that we have some neutral superheros! Who are they?

```r
filter(superhero_info, superhero_info$Alignment == "neutral")
```

```
## # A tibble: 24 × 10
##    Name       Gender Eye c…¹ Type  Hair …² Height Publi…³ Skin …⁴ Align…⁵ Weight
##    <chr>      <chr>  <chr>   <chr> <chr>    <dbl> <chr>   <chr>   <chr>    <dbl>
##  1 Bizarro    Male   black   Biza… Black      191 DC Com… white   neutral    155
##  2 Black Fla… Male   <NA>    God … <NA>        NA DC Com… <NA>    neutral     NA
##  3 Captain C… Male   brown   Human Brown       NA DC Com… <NA>    neutral     NA
##  4 Copycat    Female red     Muta… White      183 Marvel… blue    neutral     67
##  5 Deadpool   Male   brown   Muta… No Hair    188 Marvel… <NA>    neutral     95
##  6 Deathstro… Male   blue    Human White      193 DC Com… <NA>    neutral    101
##  7 Etrigan    Male   red     Demon No Hair    193 DC Com… yellow  neutral    203
##  8 Galactus   Male   black   Cosm… Black      876 Marvel… <NA>    neutral     16
##  9 Gladiator  Male   blue    Stro… Blue       198 Marvel… purple  neutral    268
## 10 Indigo     Female <NA>    Alien Purple      NA DC Com… <NA>    neutral     NA
## # … with 14 more rows, and abbreviated variable names ¹​`Eye color`,
## #   ²​`Hair color`, ³​Publisher, ⁴​`Skin color`, ⁵​Alignment
```
There are 24 ^.


## `superhero_info`
3. Let's say we are only interested in the variables name, alignment, and "race". How would you isolate these variables from `superhero_info`?

```r
select(superhero_info, Name, Alignment, Type)
```

```
## # A tibble: 734 × 3
##    Name          Alignment Type             
##    <chr>         <chr>     <chr>            
##  1 A-Bomb        good      Human            
##  2 Abe Sapien    good      Icthyo Sapien    
##  3 Abin Sur      good      Ungaran          
##  4 Abomination   bad       Human / Radiation
##  5 Abraxas       bad       Cosmic Entity    
##  6 Absorbing Man bad       Human            
##  7 Adam Monroe   good      <NA>             
##  8 Adam Strange  good      Human            
##  9 Agent 13      good      <NA>             
## 10 Agent Bob     good      Human            
## # … with 724 more rows
```

## Not Human
4. List all of the superheros that are not human.

```r
superhero_info %>%
  select(Name, Alignment, Type) %>%
  filter(Type != "Human")
```

```
## # A tibble: 222 × 3
##    Name         Alignment Type             
##    <chr>        <chr>     <chr>            
##  1 Abe Sapien   good      Icthyo Sapien    
##  2 Abin Sur     good      Ungaran          
##  3 Abomination  bad       Human / Radiation
##  4 Abraxas      bad       Cosmic Entity    
##  5 Ajax         bad       Cyborg           
##  6 Alien        bad       Xenomorph XX121  
##  7 Amazo        bad       Android          
##  8 Angel        good      Vampire          
##  9 Angel Dust   good      Mutant           
## 10 Anti-Monitor bad       God / Eternal    
## # … with 212 more rows
```
…
9. OK, so are there more good guys or bad guys that are bald (personal interest)?

```r
bad_guys %>% 
  select(`Hair color`) %>%
  filter(bad_guys$`Hair color` == "No Hair")
```

```
## # A tibble: 35 × 1
##    `Hair color`
##    <chr>       
##  1 No Hair     
##  2 No Hair     
##  3 No Hair     
##  4 No Hair     
##  5 No Hair     
##  6 No Hair     
##  7 No Hair     
##  8 No Hair     
##  9 No Hair     
## 10 No Hair     
## # … with 25 more rows
```

```r
good_guys %>% 
  select(`Hair color`) %>%
  filter(good_guys$`Hair color` == "No Hair")
```

```
## # A tibble: 37 × 1
##    `Hair color`
##    <chr>       
##  1 No Hair     
##  2 No Hair     
##  3 No Hair     
##  4 No Hair     
##  5 No Hair     
##  6 No Hair     
##  7 No Hair     
##  8 No Hair     
##  9 No Hair     
## 10 No Hair     
## # … with 27 more rows
```
…
## Height to Weight Ratio
13. It's easy to be strong when you are heavy and tall, but who is heavy and short? Which superheros have the highest height to weight ratio?

```r
superhero_info %>%
  mutate(`Height/Weight` = Height/Weight) %>%
  select(Name, `Height/Weight`) %>%
  arrange(desc(`Height/Weight`))
```

```
## # A tibble: 734 × 2
##    Name            `Height/Weight`
##    <chr>                     <dbl>
##  1 Groot                    175.  
##  2 Galactus                  54.8 
##  3 Fin Fang Foom             54.2 
##  4 Longshot                   5.22
##  5 Jack-Jack                  5.07
##  6 Rocket Raccoon             4.88
##  7 Dash                       4.52
##  8 Howard the Duck            4.39
##  9 Swarm                      4.17
## 10 Yoda                       3.88
## # … with 724 more rows
```
…
14. How many superheros have a combination of accelerated healing, durability, and super strength?

```r
superhero_powers %>%
  #select(hero_names, accelerated_healing, durability, super_strength) %>%
  filter(accelerated_healing & durability & super_strength == "TRUE")
```

```
## # A tibble: 97 × 168
##    hero_names   agility accele…¹ lante…² dimen…³ cold_…⁴ durab…⁵ stealth energ…⁶
##    <chr>        <lgl>   <lgl>    <lgl>   <lgl>   <lgl>   <lgl>   <lgl>   <lgl>  
##  1 A-Bomb       FALSE   TRUE     FALSE   FALSE   FALSE   TRUE    FALSE   FALSE  
##  2 Abe Sapien   TRUE    TRUE     FALSE   FALSE   TRUE    TRUE    FALSE   FALSE  
##  3 Angel        TRUE    TRUE     FALSE   FALSE   FALSE   TRUE    TRUE    FALSE  
##  4 Anti-Monitor FALSE   TRUE     FALSE   TRUE    FALSE   TRUE    FALSE   TRUE   
##  5 Anti-Venom   FALSE   TRUE     FALSE   FALSE   FALSE   TRUE    FALSE   FALSE  
##  6 Aquaman      TRUE    TRUE     FALSE   FALSE   TRUE    TRUE    TRUE    FALSE  
##  7 Arachne      TRUE    TRUE     FALSE   FALSE   FALSE   TRUE    FALSE   FALSE  
##  8 Archangel    TRUE    TRUE     FALSE   FALSE   FALSE   TRUE    FALSE   FALSE  
##  9 Ardina       TRUE    TRUE     FALSE   FALSE   TRUE    TRUE    FALSE   FALSE  
## 10 Ares         TRUE    TRUE     FALSE   FALSE   FALSE   TRUE    FALSE   FALSE  
## # … with 87 more rows, 159 more variables: flight <lgl>, danger_sense <lgl>,
## #   underwater_breathing <lgl>, marksmanship <lgl>, weapons_master <lgl>,
## #   power_augmentation <lgl>, animal_attributes <lgl>, longevity <lgl>,
## #   intelligence <lgl>, super_strength <lgl>, cryokinesis <lgl>,
## #   telepathy <lgl>, energy_armor <lgl>, energy_blasts <lgl>,
## #   duplication <lgl>, size_changing <lgl>, density_control <lgl>,
## #   stamina <lgl>, astral_travel <lgl>, audio_control <lgl>, dexterity <lgl>, …
```
…
