…
4. The column `COSTT4_A` is the annual cost of each institution. Which city has the highest average cost? Where is it located?

```r
colleges %>%
  group_by(city) %>%
  summarise(avg_cost=mean(costt4_a)) %>%
  arrange(desc(avg_cost))
```

```
## # A tibble: 161 × 2
##    city                avg_cost
##    <chr>                  <dbl>
##  1 Malibu                 66152
##  2 Valencia               64686
##  3 Redlands               61542
##  4 Moraga                 61095
##  5 Atherton               56035
##  6 Thousand Oaks          54373
##  7 Rancho Palos Verdes    50758
##  8 La Verne               50603
##  9 Belmont                50415
## 10 La Mirada              48857
## # … with 151 more rows
```
…
