…
fisheries_tidy$catch <- as.numeric(fisheries_tidy$catch)
```

3. How many countries are represented in the data? Provide a count and list their names.

```r
count(fisheries, country)
```

```
## # A tibble: 204 × 2
##    country                 n
##    <fct>               <int>
##  1 Albania                67
##  2 Algeria                59
##  3 American Samoa         32
##  4 Angola                 88
##  5 Anguilla                3
##  6 Antigua and Barbuda    22
##  7 Argentina             140
##  8 Aruba                   5
##  9 Australia             301
## 10 Bahamas                14
## # … with 194 more rows
```
204 unique countries. 

4. Refocus the data only to include country, isscaap_taxonomic_group, asfis_species_name, asfis_species_number, year, catch.

```r
fisheries_tidy %>%
  select(country, isscaap_taxonomic_group, asfis_species_name, asfis_species_number, year, catch)
```

```
## # A tibble: 376,771 × 6
##    country isscaap_taxonomic_group asfis_species_name asfis_specie…¹  year catch
##    <fct>   <chr>                   <chr>              <fct>          <dbl> <dbl>
##  1 Albania Sharks, rays, chimaeras Squatinidae        10903XXXXX      1995    NA
##  2 Albania Sharks, rays, chimaeras Squatinidae        10903XXXXX      1996    53
##  3 Albania Sharks, rays, chimaeras Squatinidae        10903XXXXX      1997    20
##  4 Albania Sharks, rays, chimaeras Squatinidae        10903XXXXX      1998    31
##  5 Albania Sharks, rays, chimaeras Squatinidae        10903XXXXX      1999    30
##  6 Albania Sharks, rays, chimaeras Squatinidae        10903XXXXX      2000    30
##  7 Albania Sharks, rays, chimaeras Squatinidae        10903XXXXX      2001    16
##  8 Albania Sharks, rays, chimaeras Squatinidae        10903XXXXX      2002    79
##  9 Albania Sharks, rays, chimaeras Squatinidae        10903XXXXX      2003     1
## 10 Albania Sharks, rays, chimaeras Squatinidae        10903XXXXX      2004     4
## # … with 376,761 more rows, and abbreviated variable name ¹​asfis_species_number
```

5. Based on the asfis_species_number, how many distinct fish species were caught as part of these data?

```r
count(fisheries_tidy, asfis_species_number)
```

```
## # A tibble: 1,551 × 2
##    asfis_species_number     n
##    <fct>                <int>
##  1 1020100101             103
##  2 1020100201               2
##  3 10201XXXXX              23
##  4 1030300603              10
##  5 10303XXXXX              54
##  6 1050200201              45
##  7 1050200301               4
##  8 1050200502              26
##  9 1060100301             119
## 10 1060200501              23
## # … with 1,541 more rows
```
1551 distinct species

6. Which country had the largest overall catch in the year 2000?

```r
fisheries_tidy %>%
  select(country, catch, year) %>%
  filter(year == "2000") %>%
  group_by(country)%>%
  summarize(catch_total=sum(catch, na.rm=T)) %>% 
  arrange(desc(catch_total))
```

```
## # A tibble: 193 × 2
##    country                  catch_total
##    <fct>                          <dbl>
##  1 China                          25899
##  2 Russian Federation             12181
##  3 United States of America       11762
##  4 Japan                           8510
##  5 Indonesia                       8341
##  6 Peru                            7443
##  7 Chile                           6906
##  8 India                           6351
##  9 Thailand                        6243
## 10 Korea, Republic of              6124
## # … with 183 more rows
```
China

7. Which country caught the most sardines (_Sardina pilchardus_) between the years 1990-2000?

```r
fisheries_tidy %>%
  select(country, asfis_species_name, year, catch) %>%
  filter(asfis_species_name == "Sardina pilchardus", between(year, 1990, 2000))%>%
  group_by(country) %>%
  summarize(catch_total=sum(catch, na.rm=T)) %>% 
  arrange(desc(catch_total))
```

```
## # A tibble: 37 × 2
##    country               catch_total
##    <fct>                       <dbl>
##  1 Morocco                      7470
##  2 Spain                        3507
##  3 Russian Federation           1639
##  4 Ukraine                      1030
##  5 France                        966
##  6 Portugal                      818
##  7 Greece                        528
##  8 Italy                         507
##  9 Serbia and Montenegro         478
## 10 Denmark                       477
## # … with 27 more rows
```
…
9. Which species had the highest catch total between 2008-2012? (hint: Osteichthyes is not a species)

```r
fisheries_tidy %>%
  select(asfis_species_name, year, catch) %>%
  filter(between(year, 2008, 2012))%>%
  group_by(asfis_species_name) %>%
  summarize(catch_total=sum(catch, na.rm=T)) %>% 
  arrange(desc(catch_total))
```

```
## # A tibble: 1,472 × 2
##    asfis_species_name    catch_total
##    <chr>                       <dbl>
##  1 Osteichthyes               107808
##  2 Theragra chalcogramma       41075
##  3 Engraulis ringens           35523
##  4 Katsuwonus pelamis          32153
##  5 Trichiurus lepturus         30400
##  6 Clupea harengus             28527
##  7 Thunnus albacares           20119
##  8 Scomber japonicus           14723
##  9 Gadus morhua                13253
## 10 Thunnus alalunga            12019
## # … with 1,462 more rows
```
…
10. Use the data to do at least one analysis of your choice.

Which year had the most catches?

```r
fisheries_tidy %>%
  select(year, catch) %>%
  group_by(year) %>%
  summarize(catch_total=sum(catch, na.rm=T)) %>% 
  arrange(desc(catch_total))
```

```
## # A tibble: 63 × 2
##     year catch_total
##    <dbl>       <dbl>
##  1  2007      268130
##  2  2006      257669
##  3  2001      257320
##  4  2002      255807
##  5  2012      255406
##  6  2008      255013
##  7  2004      254115
##  8  2005      251877
##  9  2009      251181
## 10  2010      244839
## # … with 53 more rows
```
…
