…
```
## [1] 34786
```

```r
deserts %>%
  #summarise(num_genera=n_distinct(genus))
  #summarise(num_genera=n_distinct(species)) %>%
  count(species) %>%
  arrange(desc(n))
```

```
## # A tibble: 40 × 2
##    species          n
##    <chr>        <int>
##  1 merriami     10596
##  2 penicillatus  3123
##  3 ordii         3027
##  4 baileyi       2891
##  5 megalotis     2609
##  6 spectabilis   2504
##  7 torridus      2249
##  8 flavus        1597
##  9 eremicus      1299
## 10 albigula      1252
## # … with 30 more rows
```
…
