…
**4. Your answer above doesn't tell the whole story since life expectancy varies by region. Make a summary that shows the min, mean, and max life expectancy by continent for all years represented in the data.**

```r
gapminder %>%
  select(continent, lifeExp, year) %>%
  group_by(year, continent) %>%
  summarise(min_LE=min(lifeExp), max_LE=max(lifeExp), mean_LE=mean(lifeExp), .groups = "keep")
```

```
## # A tibble: 60 × 5
## # Groups:   year, continent [60]
##     year continent min_LE max_LE mean_LE
##    <int> <fct>      <dbl>  <dbl>   <dbl>
##  1  1952 Africa      30     52.7    39.1
##  2  1952 Americas    37.6   68.8    53.3
##  3  1952 Asia        28.8   65.4    46.3
##  4  1952 Europe      43.6   72.7    64.4
##  5  1952 Oceania     69.1   69.4    69.3
##  6  1957 Africa      31.6   58.1    41.3
##  7  1957 Americas    40.7   70.0    56.0
##  8  1957 Asia        30.3   67.8    49.3
##  9  1957 Europe      48.1   73.5    66.7
## 10  1957 Oceania     70.3   70.3    70.3
## # … with 50 more rows
```
…
**7. Which countries have had the largest population growth since 1952?**

```r
gapminder %>%
  select(country, year, pop) %>%
  filter(year==1952|year==2007) %>%
  pivot_wider(names_from = year, names_prefix = "yr", values_from = pop) %>%
  mutate(delta=yr2007-yr1952) %>%
  arrange(desc(delta)) #Output: China, India, Indonesia, USA, Brazil
```

```
## # A tibble: 142 × 4
##    country          yr1952     yr2007     delta
##    <fct>             <int>      <int>     <int>
##  1 China         556263527 1318683096 762419569
##  2 India         372000000 1110396331 738396331
##  3 United States 157553000  301139947 143586947
##  4 Indonesia      82052000  223547000 141495000
##  5 Brazil         56602560  190010647 133408087
##  6 Pakistan       41346560  169270617 127924057
##  7 Bangladesh     46886859  150448339 103561480
##  8 Nigeria        33119096  135031164 101912068
##  9 Mexico         30144317  108700891  78556574
## 10 Philippines    22438691   91077287  68638596
## # … with 132 more rows
```
…
