…
7. What is the average `enterococci_cfu_100ml` by year for each beach. Think about which data you will use- long or wide.

```r
sydneybeaches_long %>% 
  group_by(site, year) %>% 
  summarize(mean_enterococci_cfu_100ml=mean(enterococci_cfu_100ml, na.rm=T))
```

```
## `summarise()` has grouped output by 'site'. You can override using the
## `.groups` argument.
```

```
## # A tibble: 66 × 3
## # Groups:   site [11]
##    site         year  mean_enterococci_cfu_100ml
##    <chr>        <chr>                      <dbl>
##  1 Bondi Beach  2013                        32.2
##  2 Bondi Beach  2014                        11.1
##  3 Bondi Beach  2015                        14.3
##  4 Bondi Beach  2016                        19.4
##  5 Bondi Beach  2017                        13.2
##  6 Bondi Beach  2018                        22.9
##  7 Bronte Beach 2013                        26.8
##  8 Bronte Beach 2014                        17.5
##  9 Bronte Beach 2015                        23.6
## 10 Bronte Beach 2016                        61.3
## # … with 56 more rows
```
…
